{
  "annotations": {
    "list": [
      {
        "$$hashKey": "object:16",
        "builtIn": 1,
        "datasource": "-- Grafana --",
        "enable": true,
        "hide": true,
        "iconColor": "rgba(0, 211, 255, 1)",
        "name": "Annotations & Alerts",
        "type": "dashboard"
      }
    ]
  },
  "editable": true,
  "gnetId": null,
  "graphTooltip": 2,
  "iteration": 1682958012360,
  "links": [],
  "panels": [
    {
      "cacheTimeout": null,
      "colorBackground": false,
      "colorValue": false,
      "colors": [
        "#299c46",
        "rgba(237, 129, 40, 0.89)",
        "#d44a3a"
      ],
      "datasource": "InfluxDB",
      "fieldConfig": {
        "defaults": {
          "custom": {}
        },
        "overrides": []
      },
      "format": "none",
      "gauge": {
        "maxValue": 100,
        "minValue": 0,
        "show": false,
        "thresholdLabels": false,
        "thresholdMarkers": true
      },
      "gridPos": {
        "h": 3,
        "w": 11,
        "x": 0,
        "y": 0
      },
      "id": 20,
      "interval": null,
      "links": [],
      "mappingType": 1,
      "mappingTypes": [
        {
          "$$hashKey": "object:114",
          "name": "value to text",
          "value": 1
        },
        {
          "$$hashKey": "object:115",
          "name": "range to text",
          "value": 2
        }
      ],
      "maxDataPoints": 100,
      "nullPointMode": "connected",
      "nullText": null,
      "postfix": "",
      "postfixFontSize": "50%",
      "prefix": "",
      "prefixFontSize": "50%",
      "rangeMaps": [
        {
          "from": "null",
          "text": "N/A",
          "to": "null"
        }
      ],
      "sparkline": {
        "fillColor": "rgba(31, 118, 189, 0.18)",
        "full": false,
        "lineColor": "rgb(31, 120, 193)",
        "show": false
      },
      "tableColumn": "hostname",
      "targets": [
        {
          "groupBy": [
            {
              "params": [
                "hostname"
              ],
              "type": "tag"
            }
          ],
          "limit": "1",
          "measurement": "node",
          "orderByTime": "ASC",
          "policy": "default",
          "refId": "A",
          "resultFormat": "table",
          "select": [
            [
              {
                "params": [
                  "clients.total"
                ],
                "type": "field"
              }
            ]
          ],
          "tags": [
            {
              "key": "nodeid",
              "operator": "=~",
              "value": "/^$node$/"
            }
          ]
        }
      ],
      "thresholds": "",
      "title": "Gateway",
      "type": "singlestat",
      "valueFontSize": "80%",
      "valueMaps": [
        {
          "$$hashKey": "object:117",
          "op": "=",
          "text": "N/A",
          "value": "null"
        }
      ],
      "valueName": "first"
    },
    {
      "cacheTimeout": null,
      "colorBackground": false,
      "colorValue": false,
      "colors": [
        "#299c46",
        "rgba(237, 129, 40, 0.89)",
        "#d44a3a"
      ],
      "datasource": "InfluxDB",
      "fieldConfig": {
        "defaults": {
          "custom": {}
        },
        "overrides": []
      },
      "format": "none",
      "gauge": {
        "maxValue": 100,
        "minValue": 0,
        "show": false,
        "thresholdLabels": false,
        "thresholdMarkers": true
      },
      "gridPos": {
        "h": 3,
        "w": 3,
        "x": 13,
        "y": 0
      },
      "id": 22,
      "interval": null,
      "links": [],
      "mappingType": 1,
      "mappingTypes": [
        {
          "$$hashKey": "object:537",
          "name": "value to text",
          "value": 1
        },
        {
          "$$hashKey": "object:538",
          "name": "range to text",
          "value": 2
        }
      ],
      "maxDataPoints": 100,
      "nullPointMode": "connected",
      "nullText": null,
      "pluginVersion": "6.7.4",
      "postfix": "",
      "postfixFontSize": "50%",
      "prefix": "",
      "prefixFontSize": "50%",
      "rangeMaps": [
        {
          "from": "null",
          "text": "N/A",
          "to": "null"
        }
      ],
      "sparkline": {
        "fillColor": "rgba(31, 118, 189, 0.18)",
        "full": false,
        "lineColor": "rgb(31, 120, 193)",
        "show": false,
        "ymax": null,
        "ymin": null
      },
      "tableColumn": "",
      "targets": [
        {
          "groupBy": [
            {
              "params": [
                "$__interval"
              ],
              "type": "time"
            },
            {
              "params": [
                "null"
              ],
              "type": "fill"
            }
          ],
          "hide": false,
          "measurement": "node",
          "orderByTime": "ASC",
          "policy": "default",
          "query": "SELECT last(\"neighbours.batadv\") FROM \"node\" WHERE (\"nodeid\" =~ /^$node$/) AND $timeFilter GROUP BY time($saveinterval) fill(null)",
          "rawQuery": true,
          "refId": "A",
          "resultFormat": "time_series",
          "select": [
            [
              {
                "params": [
                  "neighbours.batadv"
                ],
                "type": "field"
              },
              {
                "params": [],
                "type": "last"
              }
            ]
          ],
          "tags": [
            {
              "key": "nodeid",
              "operator": "=~",
              "value": "/^$node$/"
            }
          ]
        }
      ],
      "thresholds": "",
      "title": "Access Points",
      "type": "singlestat",
      "valueFontSize": "80%",
      "valueMaps": [
        {
          "$$hashKey": "object:540",
          "op": "=",
          "text": "N/A",
          "value": "null"
        }
      ],
      "valueName": "current"
    },
    {
      "cacheTimeout": null,
      "colorBackground": false,
      "colorValue": false,
      "colors": [
        "#299c46",
        "rgba(237, 129, 40, 0.89)",
        "#d44a3a"
      ],
      "datasource": "InfluxDB",
      "fieldConfig": {
        "defaults": {
          "custom": {}
        },
        "overrides": []
      },
      "format": "dtdurations",
      "gauge": {
        "maxValue": 100,
        "minValue": 0,
        "show": false,
        "thresholdLabels": false,
        "thresholdMarkers": true
      },
      "gridPos": {
        "h": 3,
        "w": 4,
        "x": 18,
        "y": 0
      },
      "id": 24,
      "interval": null,
      "links": [],
      "mappingType": 1,
      "mappingTypes": [
        {
          "$$hashKey": "object:152",
          "name": "value to text",
          "value": 1
        },
        {
          "$$hashKey": "object:153",
          "name": "range to text",
          "value": 2
        }
      ],
      "maxDataPoints": 100,
      "nullPointMode": "connected",
      "nullText": null,
      "postfix": "",
      "postfixFontSize": "50%",
      "prefix": "",
      "prefixFontSize": "50%",
      "rangeMaps": [
        {
          "from": "null",
          "text": "N/A",
          "to": "null"
        }
      ],
      "sparkline": {
        "fillColor": "rgba(31, 118, 189, 0.18)",
        "full": false,
        "lineColor": "rgb(31, 120, 193)",
        "show": false,
        "ymax": null,
        "ymin": null
      },
      "tableColumn": "",
      "targets": [
        {
          "groupBy": [
            {
              "params": [
                "$__interval"
              ],
              "type": "time"
            },
            {
              "params": [
                "null"
              ],
              "type": "fill"
            }
          ],
          "measurement": "node",
          "orderByTime": "ASC",
          "policy": "default",
          "query": "SELECT last(\"time.up\") AS \"uptime\" FROM \"node\" WHERE (\"nodeid\" =~ /$node$/) AND $timeFilter GROUP BY time($interval) fill(null)",
          "refId": "A",
          "resultFormat": "time_series",
          "select": [
            [
              {
                "params": [
                  "time.up"
                ],
                "type": "field"
              },
              {
                "params": [],
                "type": "last"
              }
            ]
          ],
          "tags": [
            {
              "key": "nodeid",
              "operator": "=~",
              "value": "/^$node$/"
            }
          ]
        }
      ],
      "thresholds": "",
      "timeFrom": null,
      "timeShift": null,
      "title": "Uptime",
      "type": "singlestat",
      "valueFontSize": "80%",
      "valueMaps": [
        {
          "$$hashKey": "object:155",
          "op": "=",
          "text": "N/A",
          "value": "null"
        }
      ],
      "valueName": "current"
    },
    {
      "aliasColors": {},
      "bars": false,
      "dashLength": 10,
      "dashes": false,
      "datasource": "InfluxDB",
      "description": "",
      "fieldConfig": {
        "defaults": {
          "custom": {},
          "links": []
        },
        "overrides": []
      },
      "fill": 10,
      "fillGradient": 10,
      "gridPos": {
        "h": 11,
        "w": 11,
        "x": 0,
        "y": 3
      },
      "hiddenSeries": false,
      "id": 14,
      "legend": {
        "alignAsTable": true,
        "avg": true,
        "current": true,
        "hideEmpty": true,
        "hideZero": true,
        "max": true,
        "min": false,
        "show": true,
        "sortDesc": true,
        "total": false,
        "values": true
      },
      "lines": true,
      "linewidth": 1,
      "links": [],
      "nullPointMode": "null",
      "options": {
        "alertThreshold": true,
        "dataLinks": []
      },
      "percentage": false,
      "pluginVersion": "7.2.1",
      "pointradius": 5,
      "points": false,
      "renderer": "flot",
      "seriesOverrides": [
        {
          "$$hashKey": "object:323",
          "alias": "Gesendet",
          "transform": "negative-Y"
        },
        {
          "$$hashKey": "object:324",
          "alias": "Gesendet Management",
          "transform": "negative-Y"
        },
        {
          "$$hashKey": "object:7531",
          "alias": "Weitergeleitet Up",
          "color": "#de2e69",
          "hideTooltip": true,
          "legend": false
        },
        {
          "$$hashKey": "object:7543",
          "alias": "Weitergeleitet Down",
          "color": "#de2e69",
          "hideTooltip": true,
          "legend": false,
          "transform": "negative-Y"
        },
        {
          "$$hashKey": "object:7551",
          "alias": "Weitergeleitet",
          "color": "#de2e69",
          "lines": false
        }
      ],
      "spaceLength": 10,
      "stack": false,
      "steppedLine": false,
      "targets": [
        {
          "alias": "$col",
          "dsType": "influxdb",
          "groupBy": [
            {
              "params": [
                "hostname"
              ],
              "type": "tag"
            },
            {
              "params": [
                "nodeid"
              ],
              "type": "tag"
            }
          ],
          "hide": false,
          "measurement": "node",
          "orderByTime": "ASC",
          "policy": "default",
          "query": "SELECT\nNON_NEGATIVE_DERIVATIVE(MEAN(\"traffic.rx.bytes\"),1s) * 8 AS \"Empfangen\",\nNON_NEGATIVE_DERIVATIVE(MEAN(\"traffic.tx.bytes\"),1s) * 8 AS \"Gesendet\",\nNON_NEGATIVE_DERIVATIVE(MEAN(\"traffic.mgmt_rx.bytes\"),1s) * 8 AS \"Empfangen Management\",\nNON_NEGATIVE_DERIVATIVE(MEAN(\"traffic.mgmt_tx.bytes\"),1s) * 8 AS \"Gesendet Management\",\nNON_NEGATIVE_DERIVATIVE(MEAN(\"traffic.forward.bytes\"),1s) * 8 AS \"Weitergeleitet\",\nNON_NEGATIVE_DERIVATIVE(MEAN(\"traffic.forward.bytes\"),1s) * 8/2 AS \"Weitergeleitet Up\",\nNON_NEGATIVE_DERIVATIVE(MEAN(\"traffic.forward.bytes\"),1s) * 8/2 AS \"Weitergeleitet Down\"\nFROM \"node\"\nWHERE (\"nodeid\" =~ /^$node$/) AND $timeFilter\nGROUP BY time($interval) fill(none)",
          "rawQuery": true,
          "refId": "A",
          "resultFormat": "time_series",
          "select": [
            [
              {
                "params": [
                  "traffic.rx.bytes"
                ],
                "type": "field"
              },
              {
                "params": [
                  "1s"
                ],
                "type": "non_negative_derivative"
              },
              {
                "params": [
                  "Clients empfangen"
                ],
                "type": "alias"
              }
            ],
            [
              {
                "params": [
                  "traffic.tx.bytes"
                ],
                "type": "field"
              },
              {
                "params": [
                  "1s"
                ],
                "type": "non_negative_derivative"
              },
              {
                "params": [
                  "Clients gesendet"
                ],
                "type": "alias"
              }
            ],
            [
              {
                "params": [
                  "traffic.forward.bytes"
                ],
                "type": "field"
              },
              {
                "params": [
                  "1s"
                ],
                "type": "non_negative_derivative"
              },
              {
                "params": [
                  "Mesh übertragen"
                ],
                "type": "alias"
              }
            ],
            [
              {
                "params": [
                  "traffic.mgmt_rx.packets"
                ],
                "type": "field"
              },
              {
                "params": [
                  "1s"
                ],
                "type": "non_negative_derivative"
              },
              {
                "params": [
                  "Management empfangen"
                ],
                "type": "alias"
              }
            ],
            [
              {
                "params": [
                  "traffic.mgmt_tx.bytes"
                ],
                "type": "field"
              },
              {
                "params": [
                  "1s"
                ],
                "type": "non_negative_derivative"
              },
              {
                "params": [
                  "Management gesendet"
                ],
                "type": "alias"
              }
            ]
          ],
          "tags": [
            {
              "key": "nodeid",
              "operator": "=~",
              "value": "/^$node$/"
            },
            {
              "condition": "AND",
              "key": "hostname",
              "operator": "=~",
              "value": "/^$NodeName$/"
            }
          ]
        }
      ],
      "thresholds": [],
      "timeFrom": null,
      "timeRegions": [],
      "timeShift": null,
      "title": "Durchsatz mit Management-Traffic",
      "tooltip": {
        "shared": true,
        "sort": 0,
        "value_type": "individual"
      },
      "transparent": true,
      "type": "graph",
      "xaxis": {
        "buckets": null,
        "mode": "time",
        "name": null,
        "show": true,
        "values": [
          "current"
        ]
      },
      "yaxes": [
        {
          "$$hashKey": "object:341",
          "format": "bps",
          "label": null,
          "logBase": 1,
          "max": null,
          "min": null,
          "show": true
        },
        {
          "$$hashKey": "object:342",
          "format": "Bps",
          "label": null,
          "logBase": 1,
          "max": null,
          "min": null,
          "show": false
        }
      ],
      "yaxis": {
        "align": false,
        "alignLevel": null
      }
    },
    {
      "aliasColors": {},
      "bars": false,
      "dashLength": 10,
      "dashes": false,
      "datasource": "InfluxDB",
      "decimals": 0,
      "description": "",
      "editable": true,
      "error": false,
      "fieldConfig": {
        "defaults": {
          "custom": {},
          "links": []
        },
        "overrides": []
      },
      "fill": 10,
      "fillGradient": 10,
      "grid": {},
      "gridPos": {
        "h": 11,
        "w": 11,
        "x": 12,
        "y": 3
      },
      "hiddenSeries": false,
      "id": 11,
      "interval": ">[[saveinterval]]s",
      "legend": {
        "alignAsTable": true,
        "avg": true,
        "current": true,
        "hideEmpty": true,
        "hideZero": false,
        "max": true,
        "min": false,
        "rightSide": false,
        "show": true,
        "total": false,
        "values": true
      },
      "lines": true,
      "linewidth": 1,
      "links": [],
      "nullPointMode": "null",
      "options": {
        "alertThreshold": true,
        "dataLinks": []
      },
      "percentage": false,
      "pluginVersion": "7.2.1",
      "pointradius": 5,
      "points": false,
      "renderer": "flot",
      "seriesOverrides": [],
      "spaceLength": 10,
      "stack": true,
      "steppedLine": false,
      "targets": [
        {
          "alias": "Verbundene Access Points",
          "dsType": "influxdb",
          "groupBy": [
            {
              "params": [
                "$interval"
              ],
              "type": "time"
            },
            {
              "params": [
                "null"
              ],
              "type": "fill"
            }
          ],
          "measurement": "node",
          "orderByTime": "ASC",
          "policy": "default",
          "query": "SELECT last(\"neighbours.batadv\") FROM \"node\" WHERE (\"nodeid\" =~ /^$node$/) AND $timeFilter GROUP BY time($saveinterval) fill(none)",
          "rawQuery": true,
          "refId": "A",
          "resultFormat": "time_series",
          "select": [
            [
              {
                "params": [
                  "clients.total"
                ],
                "type": "field"
              },
              {
                "params": [],
                "type": "sum"
              },
              {
                "params": [
                  "Clients gesamt"
                ],
                "type": "alias"
              }
            ]
          ],
          "tags": [
            {
              "key": "nodeid",
              "operator": "=~",
              "value": "/$node$/"
            }
          ]
        }
      ],
      "thresholds": [],
      "timeFrom": null,
      "timeRegions": [],
      "timeShift": null,
      "title": "Access Points",
      "tooltip": {
        "msResolution": true,
        "shared": true,
        "sort": 0,
        "value_type": "individual"
      },
      "transparent": true,
      "type": "graph",
      "xaxis": {
        "buckets": null,
        "mode": "time",
        "name": null,
        "show": true,
        "values": []
      },
      "yaxes": [
        {
          "$$hashKey": "object:770",
          "decimals": 0,
          "format": "short",
          "label": "",
          "logBase": 1,
          "max": null,
          "min": "0",
          "show": true
        },
        {
          "$$hashKey": "object:771",
          "format": "short",
          "logBase": 1,
          "max": null,
          "min": null,
          "show": false
        }
      ],
      "yaxis": {
        "align": false,
        "alignLevel": null
      }
    },
    {
      "aliasColors": {},
      "bars": false,
      "dashLength": 10,
      "dashes": false,
      "datasource": "InfluxDB",
      "decimals": 0,
      "editable": true,
      "error": false,
      "fieldConfig": {
        "defaults": {
          "custom": {},
          "links": []
        },
        "overrides": []
      },
      "fill": 10,
      "fillGradient": 10,
      "grid": {},
      "gridPos": {
        "h": 9,
        "w": 11,
        "x": 0,
        "y": 14
      },
      "hiddenSeries": false,
      "id": 4,
      "interval": ">[[saveinterval]]s",
      "legend": {
        "alignAsTable": true,
        "avg": true,
        "current": true,
        "hideEmpty": false,
        "hideZero": false,
        "max": false,
        "min": false,
        "rightSide": false,
        "show": true,
        "total": false,
        "values": true
      },
      "lines": true,
      "linewidth": 1,
      "links": [],
      "nullPointMode": "null",
      "options": {
        "alertThreshold": true,
        "dataLinks": []
      },
      "percentage": false,
      "pluginVersion": "7.2.1",
      "pointradius": 5,
      "points": false,
      "renderer": "flot",
      "seriesOverrides": [],
      "spaceLength": 10,
      "stack": false,
      "steppedLine": false,
      "targets": [
        {
          "alias": "$col",
          "dsType": "influxdb",
          "groupBy": [
            {
              "params": [
                "$interval"
              ],
              "type": "time"
            },
            {
              "params": [
                "null"
              ],
              "type": "fill"
            }
          ],
          "measurement": "node",
          "orderByTime": "ASC",
          "policy": "default",
          "query": "SELECT MEAN(\"load\") AS \"CPU-Auslastung\", ((MEAN(\"memory.total\")-MEAN(\"memory.free\"))/MEAN(\"memory.total\")) AS \"Speicherbelegung\" FROM \"node\" WHERE \"nodeid\" =~ /$node$/ AND $timeFilter GROUP BY time($saveinterval) fill(none)",
          "rawQuery": true,
          "refId": "A",
          "resultFormat": "time_series",
          "select": [
            [
              {
                "params": [
                  "load"
                ],
                "type": "field"
              },
              {
                "params": [],
                "type": "mean"
              },
              {
                "params": [
                  "Load"
                ],
                "type": "alias"
              }
            ],
            [
              {
                "params": [
                  "(memory.total-memory.free)/memory.total"
                ],
                "type": "field"
              },
              {
                "params": [],
                "type": "mean"
              },
              {
                "params": [
                  " / 100"
                ],
                "type": "math"
              },
              {
                "params": [
                  "Mem"
                ],
                "type": "alias"
              }
            ]
          ],
          "tags": [
            {
              "key": "nodeid",
              "operator": "=~",
              "value": "/$node$/"
            }
          ]
        }
      ],
      "thresholds": [],
      "timeFrom": null,
      "timeRegions": [],
      "timeShift": null,
      "title": "Systemlast",
      "tooltip": {
        "msResolution": true,
        "shared": true,
        "sort": 0,
        "value_type": "cumulative"
      },
      "transparent": true,
      "type": "graph",
      "xaxis": {
        "buckets": null,
        "mode": "time",
        "name": null,
        "show": true,
        "values": []
      },
      "yaxes": [
        {
          "$$hashKey": "object:8629",
          "decimals": null,
          "format": "percentunit",
          "label": "",
          "logBase": 1,
          "max": "1",
          "min": "0",
          "show": true
        },
        {
          "$$hashKey": "object:8630",
          "decimals": null,
          "format": "short",
          "logBase": 1,
          "max": null,
          "min": null,
          "show": true
        }
      ],
      "yaxis": {
        "align": false,
        "alignLevel": null
      }
    },
    {
      "aliasColors": {},
      "bars": false,
      "dashLength": 10,
      "dashes": false,
      "datasource": "InfluxDB",
      "decimals": 0,
      "description": "",
      "editable": true,
      "error": false,
      "fieldConfig": {
        "defaults": {
          "custom": {},
          "links": []
        },
        "overrides": []
      },
      "fill": 10,
      "fillGradient": 10,
      "grid": {},
      "gridPos": {
        "h": 9,
        "w": 11,
        "x": 12,
        "y": 14
      },
      "hiddenSeries": false,
      "id": 25,
      "interval": ">[[saveinterval]]s",
      "legend": {
        "alignAsTable": true,
        "avg": true,
        "current": true,
        "hideEmpty": true,
        "hideZero": false,
        "max": true,
        "min": false,
        "rightSide": false,
        "show": true,
        "total": false,
        "values": true
      },
      "lines": true,
      "linewidth": 1,
      "links": [],
      "nullPointMode": "connected",
      "options": {
        "alertThreshold": true,
        "dataLinks": []
      },
      "percentage": false,
      "pluginVersion": "7.2.1",
      "pointradius": 5,
      "points": false,
      "renderer": "flot",
      "seriesOverrides": [],
      "spaceLength": 10,
      "stack": true,
      "steppedLine": false,
      "targets": [
        {
          "alias": "$tag_hostname",
          "groupBy": [
            {
              "params": [
                "$saveinterval"
              ],
              "type": "time"
            },
            {
              "params": [
                "hostname"
              ],
              "type": "tag"
            }
          ],
          "measurement": "node",
          "orderByTime": "ASC",
          "policy": "default",
          "query": "SELECT last(\"neighbours.batadv\") FROM \"node\" WHERE (\"nodeid\" =~ /^f2beef/) AND $timeFilter GROUP BY time($saveinterval), \"hostname\"",
          "rawQuery": false,
          "refId": "B",
          "resultFormat": "time_series",
          "select": [
            [
              {
                "params": [
                  "neighbours.batadv"
                ],
                "type": "field"
              },
              {
                "params": [],
                "type": "last"
              }
            ]
          ],
          "tags": [
            {
              "key": "nodeid",
              "operator": "=~",
              "value": "/^f2beef/"
            }
          ]
        }
      ],
      "thresholds": [],
      "timeFrom": null,
      "timeRegions": [],
      "timeShift": null,
      "title": "Access Points pro Gateway",
      "tooltip": {
        "msResolution": true,
        "shared": true,
        "sort": 0,
        "value_type": "individual"
      },
      "transparent": true,
      "type": "graph",
      "xaxis": {
        "buckets": null,
        "mode": "time",
        "name": null,
        "show": true,
        "values": []
      },
      "yaxes": [
        {
          "$$hashKey": "object:770",
          "decimals": 0,
          "format": "short",
          "label": "",
          "logBase": 1,
          "max": null,
          "min": "0",
          "show": true
        },
        {
          "$$hashKey": "object:771",
          "format": "short",
          "logBase": 1,
          "max": null,
          "min": null,
          "show": false
        }
      ],
      "yaxis": {
        "align": false,
        "alignLevel": null
      }
    }
  ],
  "refresh": "30m",
  "schemaVersion": 22,
  "style": "dark",
  "tags": [
    "nodes",
    "meshviewer"
  ],
  "templating": {
    "list": [
      {
        "allFormat": "regex wildcard",
        "allValue": "(.*)",
        "current": {
          "text": "f2beef001004",
          "value": [
            "f2beef001004"
          ]
        },
        "datasource": "InfluxDB",
        "definition": "",
        "hide": 0,
        "includeAll": true,
        "index": -1,
        "label": null,
        "multi": true,
        "multiFormat": "regex values",
        "name": "node",
        "options": [],
        "query": "SHOW TAG VALUES FROM \"node\" WITH KEY = \"nodeid\"",
        "refresh": 1,
        "regex": "",
        "skipUrlSync": false,
        "sort": 0,
        "tagValuesQuery": "SHOW TAG VALUES FROM \"node\" WITH KEY = \"nodeid\" WHERE \"hostname\" = '$tag'",
        "tags": [
          "        M.freifunk-74da88a576e1",
          "#FrixX",
          "85095 EX6150",
          "85095 Netgear EX3800",
          "85095 Offloader",
          "85095 Offloader Riedenburger Strasse",
          "85095 Xiaomi Mi Router 4A (100M International Edition)",
          "85095AVM7360v1",
          "85095AVM7360v1-Test-VXLAN",
          "85095AcMesh",
          "85095DoerndorfRiedenburgerStrasse",
          "85095Offloader",
          "85095UnifiApPro",
          "85095UnifiApPro2",
          "85095_FutroS900",
          "859095 Offloader",
          "92345 AVM300E",
          "92345-Bully_1043_2",
          "92345-PERR-W2_01",
          "92345-PERR-W2_02",
          "92345_Positiv-Fitness_Dietfurt",
          "AVM300E",
          "AVM450E",
          "AVM7360",
          "AVM7360-Test-VXLAN",
          "AW-Nachhilfe",
          "Acer_mit_WLan",
          "AlBit-Carambola2",
          "AlBit-N2",
          "AlBit-UAM",
          "AlpenRaps",
          "Altmannstein17",
          "Altmannstein18",
          "Altmannstein2",
          "Altmannstein20",
          "Altmannstein22",
          "Altmannstein3",
          "Altmannstein4",
          "AltmannsteinRaps-Schuh1",
          "AltmannsteinRaps10",
          "AltmannsteinRaps16",
          "AltmannsteinRaps5",
          "AltmansteinRaps12",
          "AltmanstenRaps15",
          "AmKreuzbaum1",
          "AmKreuzbaum3",
          "Amadeus-01",
          "Amadeus-02",
          "Andrea P",
          "Auf_der_Schanz_1",
          "B-K",
          "B2S",
          "Baeckerei-Hermann",
          "Balkan_Freifunk",
          "Beilngries-Freibad-VPN",
          "Bühler-Halle",
          "Chicos-zuhause",
          "CoolDark",
          "Cool_Dark",
          "DIE-LINKE",
          "DIE_GRUENEN",
          "DJK",
          "DJK2",
          "Diagonal",
          "DotBitcoin.io",
          "E-Wirt",
          "EX3800-3",
          "EX3800-Next",
          "EX6150",
          "Emmas Kneipp-Kneipe",
          "F21C",
          "FF-!ORT!-!NAME!e4c32a472a74",
          "FF-BO-DARC-O35",
          "FF-BadZwesten_ElektroSchmidt-DBI-003",
          "FF-BadZwesten_Haarstuebchen-DBI-004",
          "FF-Hofgeismar_BremerStr-DBI-ERX992",
          "FF-IN-Meisenweg",
          "FF-Jestadt-Hof-TKI",
          "FF-KS-FFWKSc0c9e3e64230",
          "FF-KS-Gilbert-245a4c150720",
          "FF-KS-HERCULES",
          "FF-Kassel-Charikar",
          "FF-Kassel-Maimana",
          "FF-Kassel-THW-OV-Kassel",
          "FF-MEG-HOPE",
          "FF-Melsungen-Testec086be9e3e6",
          "FF-NH-AP-01",
          "FF-RH-AP-01",
          "FF-RH-AP-02",
          "FF-SB-AP-01",
          "FF-SB-AP-02",
          "FF-SM-AP-01",
          "FF-SM-AP-02",
          "FF-SM-AP-03",
          "FF-SOEHRE-SOEHREBLICK",
          "FF-Vellmar-Eliud-Kipchoge",
          "FF-Wehretal-Wichtel1",
          "FFKS-Nachrichtenmeisterei-AP01",
          "FFRennertshofen1",
          "FFRennertshofen2",
          "FFW-Eitensheim-1",
          "FFW-Eitensheim-2",
          "FFW-Eitensheim-3",
          "Faltbootclub",
          "Feinbaeckerei_Ruch_31",
          "Feinbaeckerei_Ruch_32",
          "Feinbaeckerei_Ruch_45",
          "Feinbaeckerei_Ruch_46",
          "Feinbaeckerei_Ruch_49",
          "Feinbaeckerei_Ruch_50",
          "Feinbaeckerei_Ruch_51",
          "Feinbaeckerei_Ruch_52",
          "Feinbaeckerei_Ruch_58",
          "Feinbaeckerei_Ruch_60",
          "Foxtrott",
          "Foxtrott-Test-VXLAN",
          "Freibad-Beilngries-01",
          "Freibad-Beilngries-02",
          "Freibad-Beilngries-03",
          "Freifunk Wolnzach",
          "Freifunk-Buergerwerkstatt-SOB-008",
          "Freifunk-Buergerwerkstatt-SOB-010",
          "Freifunk-Buergerwerkstatt-SOB_005",
          "Freifunk-Denkendorf",
          "Freifunk-JensDev",
          "Freifunk-Konradviertel",
          "Freifunk-OBFD",
          "Freifunk4Dlm",
          "Freifunk_Neuburgerstr-FB7360_1",
          "Freifunks",
          "Fuldabrueck-Industriestr3-MMA-001",
          "Fuldabrueck-Industriestr3-MMA-002",
          "Fuldabrueck-Industriestr3-MMA-003",
          "Fuldatal-HEAE-ERX2-ASC-013",
          "Gabelsbergerstr-16",
          "Gai_01",
          "GeierB-Balkon",
          "GeierB-Keller",
          "GeierB-TEST2",
          "GeierB-VM",
          "Geierb-841",
          "Gerolfing_West",
          "Goran im Keller",
          "HIVE_Northpoint",
          "HIVE_Westpoint",
          "HNO-Praxis-Erbach",
          "HNO-Schlaflabor",
          "HNO-Zentrum-Ulm",
          "Hautarzt-Lutz",
          "IN-Nord 03",
          "Jakob-Wurm-Str",
          "JosefausRoxel3",
          "KAP94 Outdoor",
          "KN_X01",
          "Kassel-AlteMolkerei26-DRI-11",
          "Kassel-AnDerSoehrebahn13-DRI-13",
          "Kassel-FES160.1-MHE044",
          "Kassel-FES160.2-MHE045",
          "Kassel-Giessbergstr47-RTR-001",
          "Kassel-Hupfeldstraße11-RTR-001#",
          "Kassel-PaulNagelStr17-DRI-03",
          "Kassel-Sandershaus-R203-ITS",
          "Kassel-Sandershaus-R211-ITS",
          "Kassel-Sandershaus-R308-ITS",
          "Kassel-Sandershaus-R311-ITS",
          "Kassel-Sandershaus-R315-ITS",
          "Kassel-Steinstueckerweg-HTH-001",
          "LeCafe",
          "Liebe-Vegan",
          "LocoM5",
          "M.freifunk-74da88a576e1",
          "M0w",
          "M2w",
          "MoSh",
          "NB1-64MB-RAM-16MB-ROM",
          "NF-Haus Hammertal2",
          "NF-Haus Hammertal_C7",
          "NF-Haus3",
          "Natuta",
          "New Hope",
          "New Topi",
          "Niederelsungen-ZurLinde.2-MHE-042",
          "Niestetal-AmKlei21-TZI-001",
          "Niestetal-Brüder-Grimm-Str-TZI-011",
          "Niestetal-Brüder-Grimm-Str-TZI-012",
          "Nordbahnhof1-64MB-RAM-16-MB-ROM",
          "Nordlicht_2",
          "NurEinAndererKnoten",
          "ONYX",
          "Oberdolling-Container",
          "Oberdolling-Container-Proxy",
          "Oberweser-AlteWeserstr-IHE-001",
          "Oberweser-AlteWeserstr-IHE-002",
          "Osterwaal-Hopfengarten",
          "Pat",
          "Pfarrgasse-11",
          "Platz-der-Heimat-Ost",
          "Richi-4900",
          "Richi-CPE",
          "Richi-keller",
          "RomeoeGiulietta",
          "Roter Schwan",
          "SAGAFLOR",
          "SOBSMK",
          "Sandelzhausen-Base",
          "Schlichtstr",
          "Schlichtstr-841",
          "Schmallenberg_Adrian",
          "Schmallenberg_Offloader",
          "Snack und Getränkeautomat",
          "Strung",
          "Test x270 ",
          "Test2",
          "Thinkpad x201",
          "Topi New",
          "URBAN-PAF_01",
          "URBAN-PAF_02",
          "URBAN-PAF_03",
          "Umwelthaus",
          "Unifi-AP1",
          "Unifi-AP2",
          "Unteranger_12",
          "Unteranger_12 Hof",
          "Versorgung",
          "Vohburg-West",
          "ZeD",
          "ZeD Rückseite",
          "ZeD Test Xiaomi",
          "ZeD-1",
          "ZeD-2",
          "ZeD-3",
          "ZeD-4",
          "Zum-Alten-Wirt",
          "Zum_Graf",
          "aerohive-80",
          "andal",
          "brightyoga.de",
          "bytewerk",
          "bytewerk-Outdoor",
          "cfr34k",
          "cija",
          "dotbitcoin.io/2",
          "f",
          "ferienwohnung schlossberg",
          "ffin-ffac-Junkerstraße",
          "ffin-gai_01",
          "ffks-14cc20e13ff0",
          "ffks-30b5c2879a54",
          "ffks-647002f71d78",
          "ffks-Albodom-AP1",
          "ffks-Aufklaerung",
          "ffks-Breuna-Birkenweg",
          "ffks-Breuna-Feuerwehr-Ausbildung",
          "ffks-Breuna-Freiw.Feuerwehr",
          "ffks-DIE-LINKE",
          "ffks-Exberghuette",
          "ffks-Grüne-Rathausfraktion",
          "ffks-Habichtswald_Ehlen_Fluesseviertel",
          "ffks-Hirschberg-AP1",
          "ffks-Kasseler-Linke-Rathaus",
          "ffks-NeueStr-AP1",
          "ffks-PIRATEN-Wolfsangerstrasse94",
          "ffks-QuerParkElErni",
          "ffks-Querallee47Nord",
          "ffks-RHG-Blumi147",
          "ffks-Sapere-Aude",
          "ffks-Sozialistische_Jugend_Falken",
          "ffks-U3",
          "ffks-Vernunft",
          "ffks-Waldstrasse-AP1",
          "ffks-ap00",
          "ffks-ap03",
          "ffks-ap04",
          "ffks-ap200",
          "ffks-ap201",
          "ffks-ap202",
          "ffks-beimV8UmsEck",
          "ffks-brauplatz",
          "ffks-e4956e403965",
          "ffks-e8de277499a0",
          "ffks-elise1",
          "ffks-fes66-1",
          "ffks-fes66-2",
          "ffks-fkb-S13",
          "ffks-h4-01-firefly",
          "ffks-h4-02-firefly",
          "ffks-h4-04-dragonfly",
          "ffks-h4-05-sawfly",
          "ffks-jasminweg-r0",
          "ffks-jhs30",
          "ffks-k15",
          "ffks-kaffeer-seegert",
          "ffks-kkk-02-butterfly",
          "ffks-kkk-03-butterfly",
          "ffks-kkk-04-butterfly",
          "ffks-okcomputer",
          "ffks-rotheeckekassel",
          "ffks-wolfi-home",
          "flipdot-01",
          "fluktron2",
          "free-wlan-for-free-citizens",
          "freifunk",
          "freifunk-000024cd3954",
          "freifunk-001f161ab62b",
          "freifunk-0836c918872f",
          "freifunk-0836c9e417d8",
          "freifunk-1459c0cad380",
          "freifunk-1459c0d10b96",
          "freifunk-18a6f78bb226",
          "freifunk-245a4c2c39d9",
          "freifunk-2c3033d8ba7d",
          "freifunk-30b5c26e97fe",
          "freifunk-30b5c2e7978a",
          "freifunk-4000-1",
          "freifunk-525400eb8c00",
          "freifunk-525400f8e198",
          "freifunk-60e32793d708",
          "freifunk-60e327ceff3c",
          "freifunk-60e327ed83ec",
          "freifunk-6c5ab0e86fb0",
          "freifunk-6c5ab0e870a9",
          "freifunk-6ccdd6d19473",
          "freifunk-70a741891852",
          "freifunk-94a67eb594b4",
          "freifunk-9ca2f4dcda90",
          "freifunk-Altmannstein",
          "freifunk-BS",
          "freifunk-Ben",
          "freifunk-Herschel",
          "freifunk-Lenzweg",
          "freifunk-Rankestr47",
          "freifunk-a0f3c1fac282",
          "freifunk-base",
          "freifunk-c006c3470aaf",
          "freifunk-c4e9847db0ea",
          "freifunk-d021f92c7f2b",
          "freifunk-d021f92c8a5e",
          "freifunk-d021f92c9317",
          "freifunk-d021f92c94ca",
          "freifunk-d021f933b28d",
          "freifunk-d021f933b385",
          "freifunk-ego",
          "freifunk-f4f26d85beb6",
          "freifunk-fh-elsendorf-01",
          "freifunk-fh-elsendorf-03",
          "freifunk-geierb-test-tiny",
          "freifunk-herschelstr",
          "freifunk-home",
          "freifunk-ius9e8rdf5e",
          "freifunk-kbzk",
          "freifunk-sob-kellerberg_0",
          "freifunk-talstraße",
          "freifunk-updatefest",
          "freifunk-updatetest",
          "freifunk_SOB",
          "geierb-test-wand",
          "geierb-wbs210",
          "gerhot",
          "gw02_ff-fkb.de_d06",
          "gw04_ff-fkb.de_d06",
          "gw2",
          "gw2_ffind10",
          "gw4",
          "gw4_ffind10",
          "gw5",
          "gw5_ffind10",
          "hawking",
          "heph0013",
          "hk",
          "hk-terrasse",
          "inpiraten.de",
          "iuehfoiuleqhrfkernf",
          "lancelot",
          "malled",
          "morituri",
          "mvpaf",
          "mvpaf1",
          "neal-01",
          "neal-CPE-30b5c2864524",
          "neal-LTE-Go",
          "neal-ac-mesh",
          "neal-ac-mesh2",
          "neal-aeh40",
          "neal-leihgeraet-wdr4300-02",
          "neal-mobile-l2tp",
          "neal-test",
          "neal-test-AirRouter",
          "neal-vm00",
          "neal-vm01",
          "neal-wdr4900",
          "oberer-graben",
          "offloader test",
          "pat_WNDR",
          "pat_WNDR_v4",
          "pension",
          "pension2",
          "smgnet",
          "smgnetz",
          "steuer",
          "steuerUG",
          "synergy-lan.de 01",
          "synergy-lan.de 02",
          "test thinkpad x201",
          "test x201",
          "tr0n",
          "uap-db",
          "uap-e5",
          "vxlan-02",
          "vxlan-03",
          "vxlan-04",
          "vxlan-05",
          "vxtest-01",
          "winwiz",
          "winwiz2",
          "x201 Test KVM",
          "x86 test",
          "zwei",
          "▌│█║▌║▌║   🎀  𝑔𝑒𝒾𝑒𝓇𝒷 𝓉𝑒𝓈𝓉-𝒱𝑀  💗😈   ║▌║▌║█│▌",
          "▌│█║▌║▌║ 🎀 𝑔𝑒𝒾𝑒𝓇𝒷 𝓉𝑒𝓈𝓉-𝒱𝑀 💗😈 ║▌║▌║█│▌"
        ],
        "tagsQuery": "SHOW TAG VALUES FROM \"node\" WITH KEY = \"hostname\"",
        "type": "query",
        "useTags": true
      },
      {
        "current": {
          "tags": [],
          "text": "5m",
          "value": "5m"
        },
        "hide": 0,
        "label": "SavedInterval",
        "name": "saveinterval",
        "options": [
          {
            "$$hashKey": "object:16020",
            "selected": true,
            "text": "5m",
            "value": "5m"
          }
        ],
        "query": "5m",
        "queryValue": "",
        "skipUrlSync": false,
        "type": "constant"
      },
      {
        "allFormat": "regex wildcard",
        "allValue": "(.*)",
        "current": {
          "text": "f2beef001004",
          "value": "f2beef001004"
        },
        "datasource": "InfluxDB",
        "definition": "",
        "hide": 0,
        "includeAll": false,
        "index": -1,
        "label": null,
        "multi": false,
        "multiFormat": "regex values",
        "name": "linktonode",
        "options": [],
        "query": "SHOW TAG VALUES FROM \"node\" WITH KEY = \"nodeid\"",
        "refresh": 1,
        "regex": "",
        "skipUrlSync": false,
        "sort": 0,
        "tagValuesQuery": "SHOW TAG VALUES FROM \"node\" WITH KEY = \"nodeid\" WHERE \"hostname\" = '$tag'",
        "tags": [
          "        M.freifunk-74da88a576e1",
          "#FrixX",
          "85095 EX6150",
          "85095 Netgear EX3800",
          "85095 Offloader",
          "85095 Offloader Riedenburger Strasse",
          "85095 Xiaomi Mi Router 4A (100M International Edition)",
          "85095AVM7360v1",
          "85095AVM7360v1-Test-VXLAN",
          "85095AcMesh",
          "85095DoerndorfRiedenburgerStrasse",
          "85095Offloader",
          "85095UnifiApPro",
          "85095UnifiApPro2",
          "85095_FutroS900",
          "859095 Offloader",
          "92345 AVM300E",
          "92345-Bully_1043_2",
          "92345-PERR-W2_01",
          "92345-PERR-W2_02",
          "92345_Positiv-Fitness_Dietfurt",
          "AVM300E",
          "AVM450E",
          "AVM7360",
          "AVM7360-Test-VXLAN",
          "AW-Nachhilfe",
          "Acer_mit_WLan",
          "AlBit-Carambola2",
          "AlBit-N2",
          "AlBit-UAM",
          "AlpenRaps",
          "Altmannstein17",
          "Altmannstein18",
          "Altmannstein2",
          "Altmannstein20",
          "Altmannstein22",
          "Altmannstein3",
          "Altmannstein4",
          "AltmannsteinRaps-Schuh1",
          "AltmannsteinRaps10",
          "AltmannsteinRaps16",
          "AltmannsteinRaps5",
          "AltmansteinRaps12",
          "AltmanstenRaps15",
          "AmKreuzbaum1",
          "AmKreuzbaum3",
          "Amadeus-01",
          "Amadeus-02",
          "Andrea P",
          "Auf_der_Schanz_1",
          "B-K",
          "B2S",
          "Baeckerei-Hermann",
          "Balkan_Freifunk",
          "Beilngries-Freibad-VPN",
          "Bühler-Halle",
          "Chicos-zuhause",
          "CoolDark",
          "Cool_Dark",
          "DIE-LINKE",
          "DIE_GRUENEN",
          "DJK",
          "DJK2",
          "Diagonal",
          "DotBitcoin.io",
          "E-Wirt",
          "EX3800-3",
          "EX3800-Next",
          "EX6150",
          "Emmas Kneipp-Kneipe",
          "F21C",
          "FF-!ORT!-!NAME!e4c32a472a74",
          "FF-BO-DARC-O35",
          "FF-BadZwesten_ElektroSchmidt-DBI-003",
          "FF-BadZwesten_Haarstuebchen-DBI-004",
          "FF-Hofgeismar_BremerStr-DBI-ERX992",
          "FF-IN-Meisenweg",
          "FF-Jestadt-Hof-TKI",
          "FF-KS-FFWKSc0c9e3e64230",
          "FF-KS-Gilbert-245a4c150720",
          "FF-KS-HERCULES",
          "FF-Kassel-Charikar",
          "FF-Kassel-Maimana",
          "FF-Kassel-THW-OV-Kassel",
          "FF-MEG-HOPE",
          "FF-Melsungen-Testec086be9e3e6",
          "FF-NH-AP-01",
          "FF-RH-AP-01",
          "FF-RH-AP-02",
          "FF-SB-AP-01",
          "FF-SB-AP-02",
          "FF-SM-AP-01",
          "FF-SM-AP-02",
          "FF-SM-AP-03",
          "FF-SOEHRE-SOEHREBLICK",
          "FF-Vellmar-Eliud-Kipchoge",
          "FF-Wehretal-Wichtel1",
          "FFKS-Nachrichtenmeisterei-AP01",
          "FFRennertshofen1",
          "FFRennertshofen2",
          "FFW-Eitensheim-1",
          "FFW-Eitensheim-2",
          "FFW-Eitensheim-3",
          "Faltbootclub",
          "Feinbaeckerei_Ruch_31",
          "Feinbaeckerei_Ruch_32",
          "Feinbaeckerei_Ruch_45",
          "Feinbaeckerei_Ruch_46",
          "Feinbaeckerei_Ruch_49",
          "Feinbaeckerei_Ruch_50",
          "Feinbaeckerei_Ruch_51",
          "Feinbaeckerei_Ruch_52",
          "Feinbaeckerei_Ruch_58",
          "Feinbaeckerei_Ruch_60",
          "Foxtrott",
          "Foxtrott-Test-VXLAN",
          "Freibad-Beilngries-01",
          "Freibad-Beilngries-02",
          "Freibad-Beilngries-03",
          "Freifunk Wolnzach",
          "Freifunk-Buergerwerkstatt-SOB-008",
          "Freifunk-Buergerwerkstatt-SOB-010",
          "Freifunk-Buergerwerkstatt-SOB_005",
          "Freifunk-Denkendorf",
          "Freifunk-JensDev",
          "Freifunk-Konradviertel",
          "Freifunk-OBFD",
          "Freifunk4Dlm",
          "Freifunk_Neuburgerstr-FB7360_1",
          "Freifunks",
          "Fuldabrueck-Industriestr3-MMA-001",
          "Fuldabrueck-Industriestr3-MMA-002",
          "Fuldabrueck-Industriestr3-MMA-003",
          "Fuldatal-HEAE-ERX2-ASC-013",
          "Gabelsbergerstr-16",
          "Gai_01",
          "GeierB-Balkon",
          "GeierB-Keller",
          "GeierB-TEST2",
          "GeierB-VM",
          "Geierb-841",
          "Gerolfing_West",
          "Goran im Keller",
          "HIVE_Northpoint",
          "HIVE_Westpoint",
          "HNO-Praxis-Erbach",
          "HNO-Schlaflabor",
          "HNO-Zentrum-Ulm",
          "Hautarzt-Lutz",
          "IN-Nord 03",
          "Jakob-Wurm-Str",
          "JosefausRoxel3",
          "KAP94 Outdoor",
          "KN_X01",
          "Kassel-AlteMolkerei26-DRI-11",
          "Kassel-AnDerSoehrebahn13-DRI-13",
          "Kassel-FES160.1-MHE044",
          "Kassel-FES160.2-MHE045",
          "Kassel-Giessbergstr47-RTR-001",
          "Kassel-Hupfeldstraße11-RTR-001#",
          "Kassel-PaulNagelStr17-DRI-03",
          "Kassel-Sandershaus-R203-ITS",
          "Kassel-Sandershaus-R211-ITS",
          "Kassel-Sandershaus-R308-ITS",
          "Kassel-Sandershaus-R311-ITS",
          "Kassel-Sandershaus-R315-ITS",
          "Kassel-Steinstueckerweg-HTH-001",
          "LeCafe",
          "Liebe-Vegan",
          "LocoM5",
          "M.freifunk-74da88a576e1",
          "M0w",
          "M2w",
          "MoSh",
          "NB1-64MB-RAM-16MB-ROM",
          "NF-Haus Hammertal2",
          "NF-Haus Hammertal_C7",
          "NF-Haus3",
          "Natuta",
          "New Hope",
          "New Topi",
          "Niederelsungen-ZurLinde.2-MHE-042",
          "Niestetal-AmKlei21-TZI-001",
          "Niestetal-Brüder-Grimm-Str-TZI-011",
          "Niestetal-Brüder-Grimm-Str-TZI-012",
          "Nordbahnhof1-64MB-RAM-16-MB-ROM",
          "Nordlicht_2",
          "NurEinAndererKnoten",
          "ONYX",
          "Oberdolling-Container",
          "Oberdolling-Container-Proxy",
          "Oberweser-AlteWeserstr-IHE-001",
          "Oberweser-AlteWeserstr-IHE-002",
          "Osterwaal-Hopfengarten",
          "Pat",
          "Pfarrgasse-11",
          "Platz-der-Heimat-Ost",
          "Richi-4900",
          "Richi-CPE",
          "Richi-keller",
          "RomeoeGiulietta",
          "Roter Schwan",
          "SAGAFLOR",
          "SOBSMK",
          "Sandelzhausen-Base",
          "Schlichtstr",
          "Schlichtstr-841",
          "Schmallenberg_Adrian",
          "Schmallenberg_Offloader",
          "Snack und Getränkeautomat",
          "Strung",
          "Test x270 ",
          "Test2",
          "Thinkpad x201",
          "Topi New",
          "URBAN-PAF_01",
          "URBAN-PAF_02",
          "URBAN-PAF_03",
          "Umwelthaus",
          "Unifi-AP1",
          "Unifi-AP2",
          "Unteranger_12",
          "Unteranger_12 Hof",
          "Versorgung",
          "Vohburg-West",
          "ZeD",
          "ZeD Rückseite",
          "ZeD Test Xiaomi",
          "ZeD-1",
          "ZeD-2",
          "ZeD-3",
          "ZeD-4",
          "Zum-Alten-Wirt",
          "Zum_Graf",
          "aerohive-80",
          "andal",
          "brightyoga.de",
          "bytewerk",
          "bytewerk-Outdoor",
          "cfr34k",
          "cija",
          "dotbitcoin.io/2",
          "f",
          "ferienwohnung schlossberg",
          "ffin-ffac-Junkerstraße",
          "ffin-gai_01",
          "ffks-14cc20e13ff0",
          "ffks-30b5c2879a54",
          "ffks-647002f71d78",
          "ffks-Albodom-AP1",
          "ffks-Aufklaerung",
          "ffks-Breuna-Birkenweg",
          "ffks-Breuna-Feuerwehr-Ausbildung",
          "ffks-Breuna-Freiw.Feuerwehr",
          "ffks-DIE-LINKE",
          "ffks-Exberghuette",
          "ffks-Grüne-Rathausfraktion",
          "ffks-Habichtswald_Ehlen_Fluesseviertel",
          "ffks-Hirschberg-AP1",
          "ffks-Kasseler-Linke-Rathaus",
          "ffks-NeueStr-AP1",
          "ffks-PIRATEN-Wolfsangerstrasse94",
          "ffks-QuerParkElErni",
          "ffks-Querallee47Nord",
          "ffks-RHG-Blumi147",
          "ffks-Sapere-Aude",
          "ffks-Sozialistische_Jugend_Falken",
          "ffks-U3",
          "ffks-Vernunft",
          "ffks-Waldstrasse-AP1",
          "ffks-ap00",
          "ffks-ap03",
          "ffks-ap04",
          "ffks-ap200",
          "ffks-ap201",
          "ffks-ap202",
          "ffks-beimV8UmsEck",
          "ffks-brauplatz",
          "ffks-e4956e403965",
          "ffks-e8de277499a0",
          "ffks-elise1",
          "ffks-fes66-1",
          "ffks-fes66-2",
          "ffks-fkb-S13",
          "ffks-h4-01-firefly",
          "ffks-h4-02-firefly",
          "ffks-h4-04-dragonfly",
          "ffks-h4-05-sawfly",
          "ffks-jasminweg-r0",
          "ffks-jhs30",
          "ffks-k15",
          "ffks-kaffeer-seegert",
          "ffks-kkk-02-butterfly",
          "ffks-kkk-03-butterfly",
          "ffks-kkk-04-butterfly",
          "ffks-okcomputer",
          "ffks-rotheeckekassel",
          "ffks-wolfi-home",
          "flipdot-01",
          "fluktron2",
          "free-wlan-for-free-citizens",
          "freifunk",
          "freifunk-000024cd3954",
          "freifunk-001f161ab62b",
          "freifunk-0836c918872f",
          "freifunk-0836c9e417d8",
          "freifunk-1459c0cad380",
          "freifunk-1459c0d10b96",
          "freifunk-18a6f78bb226",
          "freifunk-245a4c2c39d9",
          "freifunk-2c3033d8ba7d",
          "freifunk-30b5c26e97fe",
          "freifunk-30b5c2e7978a",
          "freifunk-4000-1",
          "freifunk-525400eb8c00",
          "freifunk-525400f8e198",
          "freifunk-60e32793d708",
          "freifunk-60e327ceff3c",
          "freifunk-60e327ed83ec",
          "freifunk-6c5ab0e86fb0",
          "freifunk-6c5ab0e870a9",
          "freifunk-6ccdd6d19473",
          "freifunk-70a741891852",
          "freifunk-94a67eb594b4",
          "freifunk-9ca2f4dcda90",
          "freifunk-Altmannstein",
          "freifunk-BS",
          "freifunk-Ben",
          "freifunk-Herschel",
          "freifunk-Lenzweg",
          "freifunk-Rankestr47",
          "freifunk-a0f3c1fac282",
          "freifunk-base",
          "freifunk-c006c3470aaf",
          "freifunk-c4e9847db0ea",
          "freifunk-d021f92c7f2b",
          "freifunk-d021f92c8a5e",
          "freifunk-d021f92c9317",
          "freifunk-d021f92c94ca",
          "freifunk-d021f933b28d",
          "freifunk-d021f933b385",
          "freifunk-ego",
          "freifunk-f4f26d85beb6",
          "freifunk-fh-elsendorf-01",
          "freifunk-fh-elsendorf-03",
          "freifunk-geierb-test-tiny",
          "freifunk-herschelstr",
          "freifunk-home",
          "freifunk-ius9e8rdf5e",
          "freifunk-kbzk",
          "freifunk-sob-kellerberg_0",
          "freifunk-talstraße",
          "freifunk-updatefest",
          "freifunk-updatetest",
          "freifunk_SOB",
          "geierb-test-wand",
          "geierb-wbs210",
          "gerhot",
          "gw02_ff-fkb.de_d06",
          "gw04_ff-fkb.de_d06",
          "gw2",
          "gw2_ffind10",
          "gw4",
          "gw4_ffind10",
          "gw5",
          "gw5_ffind10",
          "hawking",
          "heph0013",
          "hk",
          "hk-terrasse",
          "inpiraten.de",
          "iuehfoiuleqhrfkernf",
          "lancelot",
          "malled",
          "morituri",
          "mvpaf",
          "mvpaf1",
          "neal-01",
          "neal-CPE-30b5c2864524",
          "neal-LTE-Go",
          "neal-ac-mesh",
          "neal-ac-mesh2",
          "neal-aeh40",
          "neal-leihgeraet-wdr4300-02",
          "neal-mobile-l2tp",
          "neal-test",
          "neal-test-AirRouter",
          "neal-vm00",
          "neal-vm01",
          "neal-wdr4900",
          "oberer-graben",
          "offloader test",
          "pat_WNDR",
          "pat_WNDR_v4",
          "pension",
          "pension2",
          "smgnet",
          "smgnetz",
          "steuer",
          "steuerUG",
          "synergy-lan.de 01",
          "synergy-lan.de 02",
          "test thinkpad x201",
          "test x201",
          "tr0n",
          "uap-db",
          "uap-e5",
          "vxlan-02",
          "vxlan-03",
          "vxlan-04",
          "vxlan-05",
          "vxtest-01",
          "winwiz",
          "winwiz2",
          "x201 Test KVM",
          "x86 test",
          "zwei",
          "▌│█║▌║▌║   🎀  𝑔𝑒𝒾𝑒𝓇𝒷 𝓉𝑒𝓈𝓉-𝒱𝑀  💗😈   ║▌║▌║█│▌",
          "▌│█║▌║▌║ 🎀 𝑔𝑒𝒾𝑒𝓇𝒷 𝓉𝑒𝓈𝓉-𝒱𝑀 💗😈 ║▌║▌║█│▌"
        ],
        "tagsQuery": "SHOW TAG VALUES FROM \"node\" WITH KEY = \"hostname\"",
        "type": "query",
        "useTags": true
      }
    ]
  },
  "time": {
    "from": "now-6h",
    "to": "now-1m"
  },
  "timepicker": {
    "now": true,
    "nowDelay": "1m",
    "refresh_intervals": [
      "5s",
      "10s",
      "30s",
      "1m",
      "5m",
      "15m",
      "30m",
      "1h",
      "2h",
      "1d"
    ],
    "time_options": [
      "5m",
      "15m",
      "1h",
      "6h",
      "12h",
      "24h",
      "2d",
      "7d",
      "30d"
    ]
  },
  "timezone": "browser",
  "title": "Freifunk Chemnitz - Gateways",
  "uid": "00000003",
  "variables": {
    "list": []
  },
  "version": 1
}
